\relax 
\select@language{english}
\@writefile{toc}{\select@language{english}}
\@writefile{lof}{\select@language{english}}
\@writefile{lot}{\select@language{english}}
\citation{memcomp}
\citation{snp}
\citation{sipser}
\citation{snp-tutorial}
\@writefile{toc}{\contentsline {section}{\numberline {1}Background of the Study}{1}}
\@writefile{toc}{\contentsline {section}{\numberline {2}Theoretical Framework}{1}}
\citation{oxford}
\citation{gpusim}
\@writefile{toc}{\contentsline {section}{\numberline {3}Related Work}{2}}
\@writefile{toc}{\contentsline {subsection}{\numberline {3.1}Definitions}{2}}
\citation{cusnp}
\citation{cusnp}
\citation{gpusim}
\citation{snpdd}
\citation{cusnp}
\citation{cusnp}
\citation{gpusim}
\citation{cusnp}
\citation{oxford}
\citation{snpdd}
\citation{snpdd}
\@writefile{toc}{\contentsline {subsection}{\numberline {3.2}Hardware aspects}{5}}
\@writefile{toc}{\contentsline {subsection}{\numberline {3.3}Software aspects}{5}}
\citation{snpdd}
\@writefile{toc}{\contentsline {section}{\numberline {4}Statement of the Problem}{6}}
\@writefile{toc}{\contentsline {section}{\numberline {5}Significance of the Study}{6}}
\@writefile{toc}{\contentsline {section}{\numberline {6}Objectives of the Study}{6}}
\@writefile{toc}{\contentsline {section}{\numberline {7}Scope and Limitations of the Study}{6}}
\@writefile{toc}{\contentsline {section}{\numberline {8}Research Plan}{7}}
\@writefile{toc}{\contentsline {subsection}{\numberline {8.1}Methodology}{7}}
\@writefile{toc}{\contentsline {subsection}{\numberline {8.2}Timetable}{7}}
\@writefile{toc}{\contentsline {subsection}{\numberline {8.3}Research Outputs}{7}}
\@writefile{lof}{\contentsline {figure}{\numberline {1}{\ignorespaces Month 1 (first bar segment) is August 2016}}{8}}
\newlabel{gantt-fig}{{1}{8}}
\citation{*}
\bibdata{refs}
\bibcite{gpusim}{Cabarle et~al., 2012}
\bibcite{cusnp}{Carandang et~al., }
\bibcite{snp}{Ionescu et~al., 2006}
\bibcite{snpdb}{Pan et~al., }
\bibcite{memcomp}{Paun, 2010}
\bibcite{oxford}{Paun et~al., 2009}
\bibcite{snp-tutorial}{P\u {a}un, 2007}
\bibcite{sipser}{Sipser, }
\bibcite{snpdd}{Zhao et~al., 2016}
\bibstyle{apalike}
