\relax 
\providecommand\hyper@newdestlabel[2]{}
\providecommand\HyperFirstAtBeginDocument{\AtBeginDocument}
\HyperFirstAtBeginDocument{\ifx\hyper@anchor\@undefined
\global\let\oldcontentsline\contentsline
\gdef\contentsline#1#2#3#4{\oldcontentsline{#1}{#2}{#3}}
\global\let\oldnewlabel\newlabel
\gdef\newlabel#1#2{\newlabelxx{#1}#2}
\gdef\newlabelxx#1#2#3#4#5#6{\oldnewlabel{#1}{{#2}{#3}}}
\AtEndDocument{\ifx\hyper@anchor\@undefined
\let\contentsline\oldcontentsline
\let\newlabel\oldnewlabel
\fi}
\fi}
\global\let\hyper@last\relax 
\gdef\HyperFirstAtBeginDocument#1{#1}
\providecommand\HyField@AuxAddToFields[1]{}
\providecommand\HyField@AuxAddToCoFields[2]{}
\@writefile{toc}{\beamer@endinputifotherversion {3.36pt}}
\@writefile{nav}{\beamer@endinputifotherversion {3.36pt}}
\select@language{english}
\@writefile{toc}{\select@language{english}}
\@writefile{lof}{\select@language{english}}
\@writefile{lot}{\select@language{english}}
\@writefile{nav}{\headcommand {\slideentry {0}{0}{1}{1/1}{}{0}}}
\@writefile{nav}{\headcommand {\beamer@framepages {1}{1}}}
\@writefile{nav}{\headcommand {\slideentry {0}{0}{2}{2/2}{}{0}}}
\@writefile{nav}{\headcommand {\beamer@framepages {2}{2}}}
\@writefile{nav}{\headcommand {\slideentry {0}{0}{3}{3/3}{}{0}}}
\@writefile{nav}{\headcommand {\beamer@framepages {3}{3}}}
\@writefile{toc}{\beamer@sectionintoc {1}{Background of the Study}{4}{0}{1}}
\@writefile{nav}{\headcommand {\sectionentry {1}{Background of the Study}{4}{Background of the Study}{0}}}
\@writefile{nav}{\headcommand {\beamer@sectionpages {1}{3}}}
\@writefile{nav}{\headcommand {\beamer@subsectionpages {1}{3}}}
\@writefile{nav}{\headcommand {\slideentry {1}{0}{1}{4/5}{}{0}}}
\@writefile{nav}{\headcommand {\beamer@framepages {4}{5}}}
\@writefile{nav}{\headcommand {\slideentry {1}{0}{2}{6/7}{}{0}}}
\@writefile{nav}{\headcommand {\beamer@framepages {6}{7}}}
\@writefile{toc}{\beamer@sectionintoc {2}{Theoretical Framework}{8}{0}{2}}
\@writefile{nav}{\headcommand {\sectionentry {2}{Theoretical Framework}{8}{Theoretical Framework}{0}}}
\@writefile{nav}{\headcommand {\beamer@sectionpages {4}{7}}}
\@writefile{nav}{\headcommand {\beamer@subsectionpages {4}{7}}}
\@writefile{nav}{\headcommand {\slideentry {2}{0}{1}{8/8}{}{0}}}
\@writefile{nav}{\headcommand {\beamer@framepages {8}{8}}}
\@writefile{nav}{\headcommand {\slideentry {2}{0}{2}{9/9}{}{0}}}
\@writefile{nav}{\headcommand {\beamer@framepages {9}{9}}}
\citation{snp-tutorial}
\@writefile{nav}{\headcommand {\slideentry {2}{0}{3}{10/10}{}{0}}}
\@writefile{nav}{\headcommand {\beamer@framepages {10}{10}}}
\@writefile{toc}{\beamer@sectionintoc {3}{Related Work}{11}{0}{3}}
\@writefile{nav}{\headcommand {\sectionentry {3}{Related Work}{11}{Related Work}{0}}}
\@writefile{nav}{\headcommand {\beamer@sectionpages {8}{10}}}
\@writefile{nav}{\headcommand {\beamer@subsectionpages {8}{10}}}
\@writefile{nav}{\headcommand {\slideentry {3}{0}{1}{11/12}{}{0}}}
\@writefile{nav}{\headcommand {\beamer@framepages {11}{12}}}
\@writefile{nav}{\headcommand {\slideentry {3}{0}{2}{13/15}{}{0}}}
\@writefile{nav}{\headcommand {\beamer@framepages {13}{15}}}
\@writefile{nav}{\headcommand {\slideentry {3}{0}{3}{16/16}{}{0}}}
\@writefile{nav}{\headcommand {\beamer@framepages {16}{16}}}
\@writefile{nav}{\headcommand {\slideentry {3}{0}{4}{17/18}{}{0}}}
\@writefile{nav}{\headcommand {\beamer@framepages {17}{18}}}
\@writefile{nav}{\headcommand {\slideentry {3}{0}{5}{19/20}{}{0}}}
\@writefile{nav}{\headcommand {\beamer@framepages {19}{20}}}
\@writefile{nav}{\headcommand {\slideentry {3}{0}{6}{21/21}{}{0}}}
\@writefile{nav}{\headcommand {\beamer@framepages {21}{21}}}
\@writefile{nav}{\headcommand {\slideentry {3}{0}{7}{22/22}{}{0}}}
\@writefile{nav}{\headcommand {\beamer@framepages {22}{22}}}
\@writefile{nav}{\headcommand {\slideentry {3}{0}{8}{23/23}{}{0}}}
\@writefile{nav}{\headcommand {\beamer@framepages {23}{23}}}
\@writefile{nav}{\headcommand {\slideentry {3}{0}{9}{24/24}{}{0}}}
\@writefile{nav}{\headcommand {\beamer@framepages {24}{24}}}
\@writefile{nav}{\headcommand {\slideentry {3}{0}{10}{25/25}{}{0}}}
\@writefile{nav}{\headcommand {\beamer@framepages {25}{25}}}
\@writefile{nav}{\headcommand {\slideentry {3}{0}{11}{26/26}{}{0}}}
\@writefile{nav}{\headcommand {\beamer@framepages {26}{26}}}
\@writefile{nav}{\headcommand {\slideentry {3}{0}{12}{27/27}{}{0}}}
\@writefile{nav}{\headcommand {\beamer@framepages {27}{27}}}
\@writefile{nav}{\headcommand {\slideentry {3}{0}{13}{28/28}{}{0}}}
\@writefile{nav}{\headcommand {\beamer@framepages {28}{28}}}
\@writefile{nav}{\headcommand {\slideentry {3}{0}{14}{29/29}{}{0}}}
\@writefile{nav}{\headcommand {\beamer@framepages {29}{29}}}
\@writefile{nav}{\headcommand {\slideentry {3}{0}{15}{30/31}{}{0}}}
\@writefile{nav}{\headcommand {\beamer@framepages {30}{31}}}
\@writefile{nav}{\headcommand {\slideentry {3}{0}{16}{32/32}{}{0}}}
\@writefile{nav}{\headcommand {\beamer@framepages {32}{32}}}
\@writefile{nav}{\headcommand {\slideentry {3}{0}{17}{33/33}{}{0}}}
\@writefile{nav}{\headcommand {\beamer@framepages {33}{33}}}
\@writefile{toc}{\beamer@sectionintoc {4}{Statement of the Problem}{34}{0}{4}}
\@writefile{nav}{\headcommand {\sectionentry {4}{Statement of the Problem}{34}{Statement of the Problem}{0}}}
\@writefile{nav}{\headcommand {\beamer@sectionpages {11}{33}}}
\@writefile{nav}{\headcommand {\beamer@subsectionpages {11}{33}}}
\@writefile{nav}{\headcommand {\slideentry {4}{0}{1}{34/36}{}{0}}}
\@writefile{nav}{\headcommand {\beamer@framepages {34}{36}}}
\@writefile{toc}{\beamer@sectionintoc {5}{Significance of the Study}{37}{0}{5}}
\@writefile{nav}{\headcommand {\sectionentry {5}{Significance of the Study}{37}{Significance of the Study}{0}}}
\@writefile{nav}{\headcommand {\beamer@sectionpages {34}{36}}}
\@writefile{nav}{\headcommand {\beamer@subsectionpages {34}{36}}}
\@writefile{nav}{\headcommand {\slideentry {5}{0}{1}{37/39}{}{0}}}
\@writefile{nav}{\headcommand {\beamer@framepages {37}{39}}}
\@writefile{toc}{\beamer@sectionintoc {6}{Objectives of the Study}{40}{0}{6}}
\@writefile{nav}{\headcommand {\sectionentry {6}{Objectives of the Study}{40}{Objectives of the Study}{0}}}
\@writefile{nav}{\headcommand {\beamer@sectionpages {37}{39}}}
\@writefile{nav}{\headcommand {\beamer@subsectionpages {37}{39}}}
\@writefile{nav}{\headcommand {\slideentry {6}{0}{1}{40/42}{}{0}}}
\@writefile{nav}{\headcommand {\beamer@framepages {40}{42}}}
\@writefile{toc}{\beamer@sectionintoc {7}{Scope and Limitations of the Study}{43}{0}{7}}
\@writefile{nav}{\headcommand {\sectionentry {7}{Scope and Limitations of the Study}{43}{Scope and Limitations of the Study}{0}}}
\@writefile{nav}{\headcommand {\beamer@sectionpages {40}{42}}}
\@writefile{nav}{\headcommand {\beamer@subsectionpages {40}{42}}}
\@writefile{nav}{\headcommand {\slideentry {7}{0}{1}{43/44}{}{0}}}
\@writefile{nav}{\headcommand {\beamer@framepages {43}{44}}}
\@writefile{toc}{\beamer@sectionintoc {8}{Research Plan}{45}{0}{8}}
\@writefile{nav}{\headcommand {\sectionentry {8}{Research Plan}{45}{Research Plan}{0}}}
\@writefile{nav}{\headcommand {\beamer@sectionpages {43}{44}}}
\@writefile{nav}{\headcommand {\beamer@subsectionpages {43}{44}}}
\@writefile{nav}{\headcommand {\slideentry {8}{0}{1}{45/45}{}{0}}}
\@writefile{nav}{\headcommand {\beamer@framepages {45}{45}}}
\citation{*}
\bibdata{refs}
\bibcite{gpusim}{\hyperlink {beamerbibgpusim}{Cabarle et~al., 2012}}
\bibcite{cusnp}{\hyperlink {beamerbibcusnp}{Carandang et~al., }}
\bibcite{snpdb}{\hyperlink {beamerbibsnpdb}{Pan et~al., }}
\bibcite{memcomp}{\hyperlink {beamerbibmemcomp}{Paun, 2010}}
\bibcite{oxford}{\hyperlink {beamerbiboxford}{Paun et~al., 2009}}
\bibcite{snp-tutorial}{\hyperlink {beamerbibsnp-tutorial}{P\u {a}un, 2007}}
\bibcite{sipser}{\hyperlink {beamerbibsipser}{Sipser, }}
\bibcite{snpdd}{\hyperlink {beamerbibsnpdd}{Zhao et~al., 2016}}
\bibstyle{apalike}
\@writefile{toc}{\beamer@sectionintoc {9}{Bibliography}{46}{0}{9}}
\@writefile{nav}{\headcommand {\sectionentry {9}{Bibliography}{46}{Bibliography}{0}}}
\@writefile{nav}{\headcommand {\beamer@sectionpages {45}{45}}}
\@writefile{nav}{\headcommand {\beamer@subsectionpages {45}{45}}}
\@writefile{nav}{\headcommand {\slideentry {9}{0}{1}{46/46}{}{0}}}
\@writefile{nav}{\headcommand {\beamer@framepages {46}{46}}}
\@writefile{nav}{\headcommand {\beamer@partpages {1}{46}}}
\@writefile{nav}{\headcommand {\beamer@subsectionpages {46}{46}}}
\@writefile{nav}{\headcommand {\beamer@sectionpages {46}{46}}}
\@writefile{nav}{\headcommand {\beamer@documentpages {46}}}
\@writefile{nav}{\headcommand {\def \inserttotalframenumber {31}}}
