\beamer@endinputifotherversion {3.36pt}
\headcommand {\slideentry {0}{0}{1}{1/1}{}{0}}
\headcommand {\beamer@framepages {1}{1}}
\headcommand {\slideentry {0}{0}{2}{2/2}{}{0}}
\headcommand {\beamer@framepages {2}{2}}
\headcommand {\slideentry {0}{0}{3}{3/3}{}{0}}
\headcommand {\beamer@framepages {3}{3}}
\headcommand {\sectionentry {1}{Background of the Study}{4}{Background of the Study}{0}}
\headcommand {\beamer@sectionpages {1}{3}}
\headcommand {\beamer@subsectionpages {1}{3}}
\headcommand {\slideentry {1}{0}{1}{4/5}{}{0}}
\headcommand {\beamer@framepages {4}{5}}
\headcommand {\slideentry {1}{0}{2}{6/7}{}{0}}
\headcommand {\beamer@framepages {6}{7}}
\headcommand {\sectionentry {2}{Theoretical Framework}{8}{Theoretical Framework}{0}}
\headcommand {\beamer@sectionpages {4}{7}}
\headcommand {\beamer@subsectionpages {4}{7}}
\headcommand {\slideentry {2}{0}{1}{8/8}{}{0}}
\headcommand {\beamer@framepages {8}{8}}
\headcommand {\slideentry {2}{0}{2}{9/9}{}{0}}
\headcommand {\beamer@framepages {9}{9}}
\headcommand {\slideentry {2}{0}{3}{10/10}{}{0}}
\headcommand {\beamer@framepages {10}{10}}
\headcommand {\sectionentry {3}{Related Work}{11}{Related Work}{0}}
\headcommand {\beamer@sectionpages {8}{10}}
\headcommand {\beamer@subsectionpages {8}{10}}
\headcommand {\slideentry {3}{0}{1}{11/12}{}{0}}
\headcommand {\beamer@framepages {11}{12}}
\headcommand {\slideentry {3}{0}{2}{13/15}{}{0}}
\headcommand {\beamer@framepages {13}{15}}
\headcommand {\slideentry {3}{0}{3}{16/16}{}{0}}
\headcommand {\beamer@framepages {16}{16}}
\headcommand {\slideentry {3}{0}{4}{17/18}{}{0}}
\headcommand {\beamer@framepages {17}{18}}
\headcommand {\slideentry {3}{0}{5}{19/20}{}{0}}
\headcommand {\beamer@framepages {19}{20}}
\headcommand {\slideentry {3}{0}{6}{21/21}{}{0}}
\headcommand {\beamer@framepages {21}{21}}
\headcommand {\slideentry {3}{0}{7}{22/22}{}{0}}
\headcommand {\beamer@framepages {22}{22}}
\headcommand {\slideentry {3}{0}{8}{23/23}{}{0}}
\headcommand {\beamer@framepages {23}{23}}
\headcommand {\slideentry {3}{0}{9}{24/24}{}{0}}
\headcommand {\beamer@framepages {24}{24}}
\headcommand {\slideentry {3}{0}{10}{25/25}{}{0}}
\headcommand {\beamer@framepages {25}{25}}
\headcommand {\slideentry {3}{0}{11}{26/26}{}{0}}
\headcommand {\beamer@framepages {26}{26}}
\headcommand {\slideentry {3}{0}{12}{27/27}{}{0}}
\headcommand {\beamer@framepages {27}{27}}
\headcommand {\slideentry {3}{0}{13}{28/28}{}{0}}
\headcommand {\beamer@framepages {28}{28}}
\headcommand {\slideentry {3}{0}{14}{29/29}{}{0}}
\headcommand {\beamer@framepages {29}{29}}
\headcommand {\slideentry {3}{0}{15}{30/31}{}{0}}
\headcommand {\beamer@framepages {30}{31}}
\headcommand {\slideentry {3}{0}{16}{32/32}{}{0}}
\headcommand {\beamer@framepages {32}{32}}
\headcommand {\slideentry {3}{0}{17}{33/33}{}{0}}
\headcommand {\beamer@framepages {33}{33}}
\headcommand {\sectionentry {4}{Statement of the Problem}{34}{Statement of the Problem}{0}}
\headcommand {\beamer@sectionpages {11}{33}}
\headcommand {\beamer@subsectionpages {11}{33}}
\headcommand {\slideentry {4}{0}{1}{34/36}{}{0}}
\headcommand {\beamer@framepages {34}{36}}
\headcommand {\sectionentry {5}{Significance of the Study}{37}{Significance of the Study}{0}}
\headcommand {\beamer@sectionpages {34}{36}}
\headcommand {\beamer@subsectionpages {34}{36}}
\headcommand {\slideentry {5}{0}{1}{37/39}{}{0}}
\headcommand {\beamer@framepages {37}{39}}
\headcommand {\sectionentry {6}{Objectives of the Study}{40}{Objectives of the Study}{0}}
\headcommand {\beamer@sectionpages {37}{39}}
\headcommand {\beamer@subsectionpages {37}{39}}
\headcommand {\slideentry {6}{0}{1}{40/42}{}{0}}
\headcommand {\beamer@framepages {40}{42}}
\headcommand {\sectionentry {7}{Scope and Limitations of the Study}{43}{Scope and Limitations of the Study}{0}}
\headcommand {\beamer@sectionpages {40}{42}}
\headcommand {\beamer@subsectionpages {40}{42}}
\headcommand {\slideentry {7}{0}{1}{43/44}{}{0}}
\headcommand {\beamer@framepages {43}{44}}
\headcommand {\sectionentry {8}{Research Plan}{45}{Research Plan}{0}}
\headcommand {\beamer@sectionpages {43}{44}}
\headcommand {\beamer@subsectionpages {43}{44}}
\headcommand {\slideentry {8}{0}{1}{45/45}{}{0}}
\headcommand {\beamer@framepages {45}{45}}
\headcommand {\sectionentry {9}{Bibliography}{46}{Bibliography}{0}}
\headcommand {\beamer@sectionpages {45}{45}}
\headcommand {\beamer@subsectionpages {45}{45}}
\headcommand {\slideentry {9}{0}{1}{46/46}{}{0}}
\headcommand {\beamer@framepages {46}{46}}
\headcommand {\beamer@partpages {1}{46}}
\headcommand {\beamer@subsectionpages {46}{46}}
\headcommand {\beamer@sectionpages {46}{46}}
\headcommand {\beamer@documentpages {46}}
\headcommand {\def \inserttotalframenumber {31}}
