\relax 
\select@language{english}
\@writefile{toc}{\select@language{english}}
\@writefile{lof}{\select@language{english}}
\@writefile{lot}{\select@language{english}}
\@writefile{loa}{\contentsline {algorithm}{\numberline {1}{\ignorespaces Modified Algorithm for SNPDDs}}{2}}
