\relax 
\providecommand\hyper@newdestlabel[2]{}
\providecommand\HyperFirstAtBeginDocument{\AtBeginDocument}
\HyperFirstAtBeginDocument{\ifx\hyper@anchor\@undefined
\global\let\oldcontentsline\contentsline
\gdef\contentsline#1#2#3#4{\oldcontentsline{#1}{#2}{#3}}
\global\let\oldnewlabel\newlabel
\gdef\newlabel#1#2{\newlabelxx{#1}#2}
\gdef\newlabelxx#1#2#3#4#5#6{\oldnewlabel{#1}{{#2}{#3}}}
\AtEndDocument{\ifx\hyper@anchor\@undefined
\let\contentsline\oldcontentsline
\let\newlabel\oldnewlabel
\fi}
\fi}
\global\let\hyper@last\relax 
\gdef\HyperFirstAtBeginDocument#1{#1}
\providecommand\HyField@AuxAddToFields[1]{}
\providecommand\HyField@AuxAddToCoFields[2]{}
\select@language{english}
\@writefile{toc}{\select@language{english}}
\@writefile{lof}{\select@language{english}}
\@writefile{lot}{\select@language{english}}
\select@language{english}
\@writefile{toc}{\select@language{english}}
\@writefile{lof}{\select@language{english}}
\@writefile{lot}{\select@language{english}}
\@writefile{toc}{\contentsline {section}{\numberline {1}Background of the Study}{1}{section.1}}
\newlabel{ch:intro}{{1}{1}{Background of the Study}{section.1}{}}
\@writefile{toc}{\contentsline {section}{\numberline {2}Theoretical Framework}{1}{section.2}}
\newlabel{ch:theor-frame}{{2}{1}{Theoretical Framework}{section.2}{}}
\@writefile{lof}{\contentsline {figure}{\numberline {1}{\ignorespaces A cell-like P system (left) and an SNP system (right). }}{1}{figure.1}}
\newlabel{fig:example}{{1}{1}{A cell-like P system (left) and an SNP system (right)}{figure.1}{}}
\newlabel{snp-defn}{{1}{1}{SNP system}{mydef.1}{}}
\citation{ionescu-sndp-2011}
\citation{Paun:WUMC:Introduction_MC:2002}
\@writefile{toc}{\contentsline {section}{\numberline {3}Related work}{3}{section.3}}
\newlabel{ch:related}{{3}{3}{Related work}{section.3}{}}
\@writefile{toc}{\contentsline {section}{\numberline {4}Problem Statement}{3}{section.4}}
\newlabel{ch:prob-sate}{{4}{3}{Problem Statement}{section.4}{}}
\@writefile{toc}{\contentsline {section}{\numberline {5}Significance of the study}{3}{section.5}}
\@writefile{toc}{\contentsline {section}{\numberline {6}Objectives of the Study}{4}{section.6}}
\newlabel{object-sect}{{6}{4}{Objectives of the Study}{section.6}{}}
\@writefile{toc}{\contentsline {section}{\numberline {7}Scope and Limitations of the Study}{4}{section.7}}
\@writefile{toc}{\contentsline {section}{\numberline {8}Research plan}{4}{section.8}}
\newlabel{ch:plan}{{8}{4}{Research plan}{section.8}{}}
\@writefile{toc}{\contentsline {subsection}{\numberline {8.1}Methodology}{4}{subsection.8.1}}
\newlabel{ch:method}{{8.1}{4}{Methodology}{subsection.8.1}{}}
\bibstyle{apalike}
\bibdata{refs}
\bibcite{ionescu-sndp-2011}{Ionescu et~al., 2011}
\@writefile{toc}{\contentsline {subsection}{\numberline {8.2}Timetable}{5}{subsection.8.2}}
\@writefile{toc}{\contentsline {subsection}{\numberline {8.3}Research outputs}{5}{subsection.8.3}}
\@writefile{toc}{\contentsline {subsection}{\numberline {8.4}A sample table}{5}{subsection.8.4}}
\@writefile{lot}{\contentsline {table}{\numberline {1}{\ignorespaces Sample table}}{5}{table.1}}
\newlabel{exp-tab}{{1}{5}{Sample table}{table.1}{}}
\bibcite{Paun:WUMC:Introduction_MC:2002}{P{\u a}un, 2002}
\@writefile{lof}{\contentsline {figure}{\numberline {2}{\ignorespaces Month 1 is September 2013, month 20 is April 2015. Dissertation defense is May 2015 (21 month total)}}{6}{figure.2}}
\newlabel{gantt-fig}{{2}{6}{Month 1 is September 2013, month 20 is April 2015. Dissertation defense is May 2015 (21 month total)}{figure.2}{}}
